<define-tag pagetitle>DLA-1359-1 ruby1.8</define-tag>
<define-tag report_date>2018-4-23</define-tag>
<define-tag secrefs>CVE-2017-17742 CVE-2018-6914 CVE-2018-8777 CVE-2018-8778 CVE-2018-8779 CVE-2018-8780</define-tag>
<define-tag packages>ruby1.8</define-tag>
<define-tag isvulnerable>yes</define-tag>
<define-tag fixed>yes</define-tag>
<define-tag fixed-section>no</define-tag>

#use wml::debian::security

