<define-tag pagetitle>DLA-1463-1 sam2p</define-tag>
<define-tag report_date>2018-8-10</define-tag>
<define-tag secrefs>CVE-2018-12578 CVE-2018-12601</define-tag>
<define-tag packages>sam2p</define-tag>
<define-tag isvulnerable>yes</define-tag>
<define-tag fixed>yes</define-tag>
<define-tag fixed-section>no</define-tag>

#use wml::debian::security

