<define-tag pagetitle>DLA-1636-1 aria2</define-tag>
<define-tag report_date>2019-1-22</define-tag>
<define-tag secrefs>CVE-2019-3500 Bug#918058</define-tag>
<define-tag packages>aria2</define-tag>
<define-tag isvulnerable>yes</define-tag>
<define-tag fixed>yes</define-tag>
<define-tag fixed-section>no</define-tag>

#use wml::debian::security

