<define-tag pagetitle>DLA-637-1 openssl</define-tag>
<define-tag report_date>2016-9-25</define-tag>
<define-tag secrefs>CVE-2016-2177 CVE-2016-2178 CVE-2016-2179 CVE-2016-2180 CVE-2016-2181 CVE-2016-2182 CVE-2016-6302 CVE-2016-6303 CVE-2016-6304 CVE-2016-6306</define-tag>
<define-tag packages>openssl</define-tag>
<define-tag isvulnerable>yes</define-tag>
<define-tag fixed>yes</define-tag>
<define-tag fixed-section>no</define-tag>

#use wml::debian::security

